AVP Ticket Sales:Fall 2016, Spring 2017
…
AVP Ticket Sales:Fall 2016, Spring 2017

Shade Wilson

8/9/2017

Example data frame (from fall 2016), extrapolated from data collected: date and time purchased, student or adult, which night, and payment method. Very easy to keep track of. So far we have (semi) detailed sales records for two semesters, and its important to continue with this trend so AVP can make the most informed decisions possible.

## # A tibble: 135 x 10
##     wday           date_time fri_stud sat_stud fri_deal fri_adult sat_adult method total profit
##    <ord>              <dttm>    <int>    <int>    <int>     <int>     <int>  <chr> <int>  <dbl>
##  1   Sun 2016-11-13 20:00:00        0        0        0         8         0 online     8     80
##  2   Sun 2016-11-13 23:55:00        0        0        0         0         5 online     5     50
##  3   Sun 2016-11-13 23:55:00        0        2        0         0         0 online     2     12
##  4   Sun 2016-11-13 23:55:00        1        0        0         1         0 online     2     16
##  5   Sun 2016-11-13 23:55:00        1        0        0         0         0 online     1      6
##  6   Mon 2016-11-14 11:01:00        0        0        3         0         0  venmo     3     12
##  7   Mon 2016-11-14 11:02:00        0        0        3         0         0  venmo     3     12
##  8   Mon 2016-11-14 11:36:00        0        1        0         0         0   cash     1      6
##  9   Mon 2016-11-14 11:46:00        1        0        3         0         0   card     4     18
## 10   Mon 2016-11-14 11:50:00        0        0        3         0         0  venmo     3     12
## # ... with 125 more rows
…
